<svg xmlns="http://www.w3.org/2000/svg" width="41.88" height="41.878" viewBox="0 0 41.88 41.878">
  <g id="Composant_2_1" data-name="Composant 2 – 1" transform="translate(0 0)">
    <path id="Tracé_48" data-name="Tracé 48" d="M4771.506,2083.307a20.939,20.939,0,1,1,20.95-20.812A20.958,20.958,0,0,1,4771.506,2083.307Zm-1.953-13.545a1.682,1.682,0,0,0,1.288-.555q5.582-5.587,11.166-11.169a3.241,3.241,0,0,0,.282-.312,1.59,1.59,0,0,0,.207-1.716,1.691,1.691,0,0,0-1.444-1.035,1.862,1.862,0,0,0-1.562.677c-3.181,3.186-6.376,6.355-9.548,9.549-.33.332-.483.3-.786-.015-1.259-1.3-2.548-2.562-3.824-3.842a2.753,2.753,0,0,0-.661-.513,1.724,1.724,0,0,0-2.175.493,1.687,1.687,0,0,0,.069,2.155c1.946,1.974,3.916,3.925,5.882,5.879A1.428,1.428,0,0,0,4769.553,2069.762Z" transform="translate(-4750.576 -2041.429)" fill="#19af4b"/>
    <path id="Tracé_49" data-name="Tracé 49" d="M4797.781,2102.811a1.423,1.423,0,0,1-1.109-.4c-1.966-1.954-3.936-3.9-5.882-5.879a1.687,1.687,0,0,1-.068-2.155,1.723,1.723,0,0,1,2.175-.492,2.733,2.733,0,0,1,.661.513c1.276,1.28,2.565,2.546,3.825,3.842.3.312.456.347.786.015,3.171-3.194,6.368-6.364,9.548-9.549a1.862,1.862,0,0,1,1.563-.677,1.691,1.691,0,0,1,1.444,1.035,1.59,1.59,0,0,1-.207,1.716,3.268,3.268,0,0,1-.281.312q-5.583,5.585-11.166,11.169A1.678,1.678,0,0,1,4797.781,2102.811Z" transform="translate(-4778.805 -2074.479)" fill="#f9f9f9"/>
  </g>
</svg>
