<svg xmlns="http://www.w3.org/2000/svg" width="38" height="23.78" viewBox="0 0 38 23.78">
  <g id="Groupe_1421" data-name="Groupe 1421" transform="translate(-600.219 -639.294)">
    <path id="Tracé_1263" data-name="Tracé 1263" d="M618.94,663.074a20.8,20.8,0,0,1-14.289-5.99,25.217,25.217,0,0,1-4.146-5.021,1.455,1.455,0,0,1,0-1.732c3.362-5.167,7.809-8.931,13.9-10.42a19.821,19.821,0,0,1,15.428,2.4,24.508,24.508,0,0,1,7.857,7.665c.1.154.188.316.289.47a1.3,1.3,0,0,1,0,1.509,24.2,24.2,0,0,1-3.036,3.965,22.505,22.505,0,0,1-9.45,6.171A20.605,20.605,0,0,1,618.94,663.074Zm.38-2.377a17.58,17.58,0,0,0,6.434-1.258,21.919,21.919,0,0,0,9.679-7.922.488.488,0,0,0-.026-.67,22.148,22.148,0,0,0-8.378-7.317,17.306,17.306,0,0,0-14.356-.567,21.54,21.54,0,0,0-9.661,7.875.538.538,0,0,0,.026.742,24.246,24.246,0,0,0,4.738,5A18.384,18.384,0,0,0,619.32,660.7Z" transform="translate(0)" fill="#6f6d6d"/>
    <path id="Tracé_1264" data-name="Tracé 1264" d="M629.361,662.414a7.126,7.126,0,1,1,7.139-7.163A7.146,7.146,0,0,1,629.361,662.414Zm-4.747-7.135a4.753,4.753,0,1,0,4.763-4.741A4.773,4.773,0,0,0,624.614,655.279Z" transform="translate(-10.157 -4.091)" fill="#6f6d6d"/>
  </g>
</svg>
